dump.vcd
$date
	Fri Dec  8 23:45:44 2023
$end

$version
	Synopsys VCS version S-2021.09
$end

$timescale
	1ns
$end

$comment Csum: 1 832eca07ee16a482 $end


$scope module uvm_pkg $end
$var reg 32 ! UVM_UNBOUNDED_CONNECTIONS [31:0] $end
$var reg 1 " uvm_start_uvm_declarations $end
$var time 64 # setting_offset $end
$var reg 32 $ setting_verbosity [31:0] $end
$var reg 1 % is_verdi_set_verbosity_called $end
$var reg 32 & uvm_global_random_seed [31:0] $end
$var reg 1 ' is_uvm_factory_trace_checked $end
$var reg 1 ( is_verdi_trace_fac $end
$upscope $end


$scope module $unit $end
$upscope $end


$scope module ahb2apb_bridge $end
$upscope $end


$scope module top $end
$var reg 1 ) HCLK $end
$var reg 1 * PCLKEN $end

$scope begin unnamed$$_vcs_3 $end
$upscope $end


$scope begin unnamed$$_vcs_0 $end
$upscope $end


$scope begin unnamed$$_vcs_1 $end
$upscope $end


$scope begin unnamed$$_vcs_2 $end
$upscope $end


$scope module H_intf $end
$var reg 1 + HCLK $end
$var reg 1 , HRESETn $end
$var reg 1 - HSEL $end
$var reg 1 . HWRITE $end
$var reg 1 / HRESP $end
$var reg 1 0 HREADY $end
$var reg 1 1 HREADYOUT $end
$var reg 2 2 HTRANS [1:0] $end
$var reg 3 3 HSIZE [2:0] $end
$var reg 4 4 HPROT [3:0] $end
$var reg 16 5 HADDR [15:0] $end
$var reg 32 6 HWDATA [31:0] $end
$var reg 32 7 HRDATA [31:0] $end
$upscope $end


$scope module P_intf $end
$var reg 1 + PCLK $end
$var reg 1 8 PCLKEN $end
$var reg 1 9 PSEL $end
$var reg 1 : PENABLE $end
$var reg 1 ; PWRITE $end
$var reg 1 < PSLVERR $end
$var reg 1 = APBACTIVE $end
$var reg 1 > PREADY $end
$var reg 4 ? PSTRB [3:0] $end
$var reg 3 @ PPROT [2:0] $end
$var reg 16 A PADDR [15:0] $end
$var reg 32 B PWDATA [31:0] $end
$var reg 32 C PRDATA [31:0] $end

$scope task _$$txp______assert_c1 $end
$upscope $end


$scope task _$$txp______assert_c2 $end
$upscope $end

$upscope $end


$scope module D1 $end
$var wire 1 D HCLK $end
$var wire 1 E HRESETn $end
$var wire 1 F PCLKEN $end
$var wire 1 G HSEL $end
$var wire 16 H HADDR [15:0] $end
$var wire 2 I HTRANS [1:0] $end
$var wire 3 J HSIZE [2:0] $end
$var wire 4 K HPROT [3:0] $end
$var wire 1 L HWRITE $end
$var wire 1 M HREADY $end
$var wire 32 N HWDATA [31:0] $end
$var reg 1 O HREADYOUT $end
$var wire 32 P HRDATA [31:0] $end
$var wire 1 Q HRESP $end
$var wire 16 R PADDR [15:0] $end
$var wire 1 S PENABLE $end
$var wire 1 T PWRITE $end
$var wire 4 U PSTRB [3:0] $end
$var wire 3 V PPROT [2:0] $end
$var wire 32 W PWDATA [31:0] $end
$var wire 1 X PSEL $end
$var wire 1 Y APBACTIVE $end
$var wire 32 Z PRDATA [31:0] $end
$var wire 1 [ PREADY $end
$var wire 1 \ PSLVERR $end
$var reg 14 ] addr_reg [13:0] $end
$var reg 1 ^ wr_reg $end
$var reg 3 _ state_reg [2:0] $end
$var reg 4 ` pstrb_reg [3:0] $end
$var wire 4 a pstrb_nxt [3:0] $end
$var reg 2 b pprot_reg [1:0] $end
$var wire 2 c pprot_nxt [1:0] $end
$var wire 1 d apb_select $end
$var wire 1 e apb_tran_end $end
$var reg 3 f next_state [2:0] $end
$var reg 32 g rwdata_reg [31:0] $end
$var wire 1 h reg_rdata_cfg $end
$var wire 1 i reg_wdata_cfg $end
$var reg 1 j sample_wdata_reg $end
$var wire 1 k sample_wdata_set $end
$var wire 1 l sample_wdata_clr $end
$upscope $end


$scope module D2 $end
$var wire 1 D PCLK $end
$var wire 1 E PRESETn $end
$var wire 1 m PSEL $end
$var wire 16 n PADDR [15:0] $end
$var wire 1 o PENABLE $end
$var wire 1 p PWRITE $end
$var wire 32 q PWDATA [31:0] $end
$var wire 32 r PRDATA [31:0] $end
$var reg 1 s PREADY $end
$var wire 1 t read_enable $end
$var wire 1 u write_enable $end
$var integer 32 v rdy_count $end
$upscope $end

$upscope $end

$enddefinitions $end

#0
$dumpvars
1'
0%
0(
1"
bxxxxxxxxxxxxxxxxxxxxxxxxxxxxxxxxxxxxxxxxxxxxxxxxxxxxxxxxxxxxxxxx #
b11111111111111111111111111111111 !
b00000000000000000000000000000000 $
b01000010000001111100110001000111 &
0)
0*
bxxxxxxxxxxxxxxxxxxxxxxxxxxxxxxxx 7
bxxxxxxxxxxxxxxxxxxxxxxxxxxxxxxxx 6
bxxxxxxxxxxxxxxxx 5
bxxxx 4
bxxx 3
bxx 2
bxxxxxxxxxxxxxxxxxxxxxxxxxxxxxxxx C
bxxxxxxxxxxxxxxxxxxxxxxxxxxxxxxxx B
bxxxxxxxxxxxxxx00 A
bx0x @
bxxxx ?
xO
xd
xe
xl
xj
x^
bxxxxxxxxxxxxxx ]
bxxx f
bxx c
bxx b
bxxxx a
bxxxx `
bxxxxxxxxxxxxxxxxxxxxxxxxxxxxxxxx g
bxxx _
xs
xt
xu
bxxxxxxxxxxxxxxxxxxxxxxxxxxxxxxxx v
0k
0i
1h
bxxxxxxxxxxxxxxxx H
bxx I
bxxx J
bxxxx K
bxxxxxxxxxxxxxxxxxxxxxxxxxxxxxxxx N
bxxxxxxxxxxxxxxxxxxxxxxxxxxxxxxxx P
bxxxxxxxxxxxxxx00 R
bxxxx U
bx0x V
bxxxxxxxxxxxxxxxxxxxxxxxxxxxxxxxx W
bxxxxxxxxxxxxxxxxxxxxxxxxxxxxxxxx Z
bxxxxxxxxxxxxxx00 n
bxxxxxxxxxxxxxxxxxxxxxxxxxxxxxxxx q
bxxxxxxxxxxxxxxxxxxxxxxxxxxxxxxxx r
0D
xM
xE
xQ
xG
xL
xY
xF
xS
xo
x[
xX
xm
x\
xT
xp
0+
x0
x1
x,
x/
x-
x.
x=
x8
x:
x>
x9
x<
x;
$end
#5
1)
1+
1D
1*
1s
1>
1[
18
1F
0<
0\
0,
0E
00
0M
0d
b00000000000000 ]
b0000000000000000 R
b0000000000000000 A
b0000000000000000 n
0^
0T
0;
0p
b00 b
b000 V
b000 @
b0000 `
b0000 U
b0000 ?
0j
0l
b000 _
0X
09
0m
0t
0Q
0/
0S
0:
0o
0e
b00000000000000000000000000000000 g
b00000000000000000000000000000000 P
b00000000000000000000000000000000 7
0s
0>
0[
b00000000000000000000000000000000 v
0u
b000 f
1O
11
bzzzzzzzzzzzzzzzzzzzzzzzzzzzzzzzz r
bzzzzzzzzzzzzzzzzzzzzzzzzzzzzzzzz C
bzzzzzzzzzzzzzzzzzzzzzzzzzzzzzzzz Z
#10
0)
0+
0D
0*
#15
1)
1+
1D
1*
1,
1E
10
1M
xd
1s
1>
1[
b00000000000000000000000000000001 v
#20
0)
0+
0D
0*
#25
1)
1+
1D
1*
b00000000000000000000000000000000 v
1-
1G
b1011111100100100 5
b10 2
b000 3
b0000 4
1.
1L
b1011111100100100 H
b10 I
b000 J
b0000 K
b1x c
b10 c
b0001 a
1Y
1=
1d
b010 f
#30
0)
0+
0D
0*
#35
1)
1+
1D
1*
b10111111001001 ]
b1011111100100100 R
b1011111100100100 A
b1011111100100100 n
1^
1T
1;
1p
b10 b
b100 V
b100 @
b0001 `
b0001 U
b0001 ?
b010 _
1X
19
1m
b00000000000000000000000000000001 v
b011 f
0O
01
#40
0)
0+
0D
0*
#45
1)
1+
1D
1*
b011 _
1S
1:
1o
1e
b00000000000000000000000000000000 v
b100 f
1u
b01010110000110111100111111100111 6
b01010110000110111100111111100111 N
b01010110000110111100111111100111 W
b01010110000110111100111111100111 B
b01010110000110111100111111100111 q
#50
0)
0+
0D
0*
#55
1)
1+
1D
1*
b100 _
0X
09
0m
0S
0:
0o
0e
bzzzzzzzzzzzzzzzzzzzzzzzzzzzzzzzz g
bzzzzzzzzzzzzzzzzzzzzzzzzzzzzzzzz P
bzzzzzzzzzzzzzzzzzzzzzzzzzzzzzzzz 7
b00000000000000000000000000000001 v
b010 f
1O
11
0u
0.
0L
b0000 a
#60
0)
0+
0D
0*
#65
1)
1+
1D
1*
0^
0T
0;
0p
b0000 `
b0000 U
b0000 ?
b010 _
1X
19
1m
b00000000000000000000000000000000 v
b011 f
0O
01
#70
0)
0+
0D
0*
#75
1)
1+
1D
1*
b011 _
1S
1:
1o
1t
1e
b00000000000000000000000000000001 v
b100 f
b01010110000110111100111111100111 r
b01010110000110111100111111100111 C
b01010110000110111100111111100111 Z
#80
0)
0+
0D
0*
#85
1)
1+
1D
1*
b100 _
0X
09
0m
0t
0S
0:
0o
0e
b01010110000110111100111111100111 g
b01010110000110111100111111100111 P
b01010110000110111100111111100111 7
b00000000000000000000000000000000 v
b010 f
1O
11
bzzzzzzzzzzzzzzzzzzzzzzzzzzzzzzzz r
bzzzzzzzzzzzzzzzzzzzzzzzzzzzzzzzz C
bzzzzzzzzzzzzzzzzzzzzzzzzzzzzzzzz Z
b1011100101000000 5
1.
1L
b0001 a
b1011100101000000 H
#90
0)
0+
0D
0*
#95
1)
1+
1D
1*
b10111001010000 ]
b1011100101000000 R
b1011100101000000 A
b1011100101000000 n
1^
1T
1;
1p
b0001 `
b0001 U
b0001 ?
b010 _
1X
19
1m
b00000000000000000000000000000001 v
b011 f
0O
01
#100
0)
0+
0D
0*
#105
1)
1+
1D
1*
b011 _
1S
1:
1o
1e
b00000000000000000000000000000000 v
b100 f
1u
b00000101100001010000001001011010 6
b00000101100001010000001001011010 N
b00000101100001010000001001011010 W
b00000101100001010000001001011010 B
b00000101100001010000001001011010 q
#110
0)
0+
0D
0*
#115
1)
1+
1D
1*
b100 _
0X
09
0m
0S
0:
0o
0e
bzzzzzzzzzzzzzzzzzzzzzzzzzzzzzzzz g
bzzzzzzzzzzzzzzzzzzzzzzzzzzzzzzzz P
bzzzzzzzzzzzzzzzzzzzzzzzzzzzzzzzz 7
b00000000000000000000000000000001 v
b010 f
1O
11
0u
0.
0L
b0000 a
#120
0)
0+
0D
0*
#125
1)
1+
1D
1*
0^
0T
0;
0p
b0000 `
b0000 U
b0000 ?
b010 _
1X
19
1m
b00000000000000000000000000000000 v
b011 f
0O
01
#130
0)
0+
0D
0*
#135
1)
1+
1D
1*
b011 _
1S
1:
1o
1t
1e
b00000000000000000000000000000001 v
b100 f
b00000101100001010000001001011010 r
b00000101100001010000001001011010 C
b00000101100001010000001001011010 Z
#140
0)
0+
0D
0*
#145
1)
1+
1D
1*
b100 _
0X
09
0m
0t
0S
0:
0o
0e
b00000101100001010000001001011010 g
b00000101100001010000001001011010 P
b00000101100001010000001001011010 7
b00000000000000000000000000000000 v
b010 f
1O
11
bzzzzzzzzzzzzzzzzzzzzzzzzzzzzzzzz r
bzzzzzzzzzzzzzzzzzzzzzzzzzzzzzzzz C
bzzzzzzzzzzzzzzzzzzzzzzzzzzzzzzzz Z
b0101110010001000 5
1.
1L
b0001 a
b0101110010001000 H
#150
0)
0+
0D
0*
#155
1)
1+
1D
1*
b01011100100010 ]
b0101110010001000 R
b0101110010001000 A
b0101110010001000 n
1^
1T
1;
1p
b0001 `
b0001 U
b0001 ?
b010 _
1X
19
1m
b00000000000000000000000000000001 v
b011 f
0O
01
#160
0)
0+
0D
0*
#165
1)
1+
1D
1*
b011 _
1S
1:
1o
1e
b00000000000000000000000000000000 v
b100 f
1u
b00011111010000000011110010010110 6
b00011111010000000011110010010110 N
b00011111010000000011110010010110 W
b00011111010000000011110010010110 B
b00011111010000000011110010010110 q
#170
0)
0+
0D
0*
#175
1)
1+
1D
1*
b100 _
0X
09
0m
0S
0:
0o
0e
bzzzzzzzzzzzzzzzzzzzzzzzzzzzzzzzz g
bzzzzzzzzzzzzzzzzzzzzzzzzzzzzzzzz P
bzzzzzzzzzzzzzzzzzzzzzzzzzzzzzzzz 7
b00000000000000000000000000000001 v
b010 f
1O
11
0u
0.
0L
b0000 a
#180
0)
0+
0D
0*
#185
1)
1+
1D
1*
0^
0T
0;
0p
b0000 `
b0000 U
b0000 ?
b010 _
1X
19
1m
b00000000000000000000000000000000 v
b011 f
0O
01
#190
0)
0+
0D
0*
#195
1)
1+
1D
1*
b011 _
1S
1:
1o
1t
1e
b00000000000000000000000000000001 v
b100 f
b00011111010000000011110010010110 r
b00011111010000000011110010010110 C
b00011111010000000011110010010110 Z
#200
0)
0+
0D
0*
#205
1)
1+
1D
1*
b100 _
0X
09
0m
0t
0S
0:
0o
0e
b00011111010000000011110010010110 g
b00011111010000000011110010010110 P
b00011111010000000011110010010110 7
b00000000000000000000000000000000 v
b010 f
1O
11
bzzzzzzzzzzzzzzzzzzzzzzzzzzzzzzzz r
bzzzzzzzzzzzzzzzzzzzzzzzzzzzzzzzz C
bzzzzzzzzzzzzzzzzzzzzzzzzzzzzzzzz Z
b0001101010111100 5
1.
1L
b0001 a
b0001101010111100 H
#210
0)
0+
0D
0*
#215
1)
1+
1D
1*
b00011010101111 ]
b0001101010111100 R
b0001101010111100 A
b0001101010111100 n
1^
1T
1;
1p
b0001 `
b0001 U
b0001 ?
b010 _
1X
19
1m
b00000000000000000000000000000001 v
b011 f
0O
01
#220
0)
0+
0D
0*
#225
1)
1+
1D
1*
b011 _
1S
1:
1o
1e
b00000000000000000000000000000000 v
b100 f
1u
b11001000110000111110010001110000 6
b11001000110000111110010001110000 N
b11001000110000111110010001110000 W
b11001000110000111110010001110000 B
b11001000110000111110010001110000 q
#230
0)
0+
0D
0*
#235
1)
1+
1D
1*
b100 _
0X
09
0m
0S
0:
0o
0e
bzzzzzzzzzzzzzzzzzzzzzzzzzzzzzzzz g
bzzzzzzzzzzzzzzzzzzzzzzzzzzzzzzzz P
bzzzzzzzzzzzzzzzzzzzzzzzzzzzzzzzz 7
b00000000000000000000000000000001 v
b010 f
1O
11
0u
0.
0L
b0000 a
#240
0)
0+
0D
0*
#245
1)
1+
1D
1*
0^
0T
0;
0p
b0000 `
b0000 U
b0000 ?
b010 _
1X
19
1m
b00000000000000000000000000000000 v
b011 f
0O
01
#250
0)
0+
0D
0*
#255
1)
1+
1D
1*
b011 _
1S
1:
1o
1t
1e
b00000000000000000000000000000001 v
b100 f
b11001000110000111110010001110000 r
b11001000110000111110010001110000 C
b11001000110000111110010001110000 Z
#260
0)
0+
0D
0*
#265
1)
1+
1D
1*
b100 _
0X
09
0m
0t
0S
0:
0o
0e
b11001000110000111110010001110000 g
b11001000110000111110010001110000 P
b11001000110000111110010001110000 7
b00000000000000000000000000000000 v
b010 f
1O
11
bzzzzzzzzzzzzzzzzzzzzzzzzzzzzzzzz r
bzzzzzzzzzzzzzzzzzzzzzzzzzzzzzzzz C
bzzzzzzzzzzzzzzzzzzzzzzzzzzzzzzzz Z
b1111001110011000 5
1.
1L
b0001 a
b1111001110011000 H
#270
0)
0+
0D
0*
#275
1)
1+
1D
1*
b11110011100110 ]
b1111001110011000 R
b1111001110011000 A
b1111001110011000 n
1^
1T
1;
1p
b0001 `
b0001 U
b0001 ?
b010 _
1X
19
1m
b00000000000000000000000000000001 v
b011 f
0O
01
#280
0)
0+
0D
0*
#285
1)
1+
1D
1*
b011 _
1S
1:
1o
1e
b00000000000000000000000000000000 v
b100 f
1u
b01011101100101101100100111010110 6
b01011101100101101100100111010110 N
b01011101100101101100100111010110 W
b01011101100101101100100111010110 B
b01011101100101101100100111010110 q
#290
0)
0+
0D
0*
#295
1)
1+
1D
1*
b100 _
0X
09
0m
0S
0:
0o
0e
bzzzzzzzzzzzzzzzzzzzzzzzzzzzzzzzz g
bzzzzzzzzzzzzzzzzzzzzzzzzzzzzzzzz P
bzzzzzzzzzzzzzzzzzzzzzzzzzzzzzzzz 7
b00000000000000000000000000000001 v
b010 f
1O
11
0u
0.
0L
b0000 a
#300
0)
0+
0D
0*
#305
1)
1+
1D
1*
0^
0T
0;
0p
b0000 `
b0000 U
b0000 ?
b010 _
1X
19
1m
b00000000000000000000000000000000 v
b011 f
0O
01
#310
0)
0+
0D
0*
#315
1)
1+
1D
1*
b011 _
1S
1:
1o
1t
1e
b00000000000000000000000000000001 v
b100 f
b01011101100101101100100111010110 r
b01011101100101101100100111010110 C
b01011101100101101100100111010110 Z
#320
0)
0+
0D
0*
#325
1)
1+
1D
1*
b100 _
0X
09
0m
0t
0S
0:
0o
0e
b01011101100101101100100111010110 g
b01011101100101101100100111010110 P
b01011101100101101100100111010110 7
b00000000000000000000000000000000 v
b010 f
1O
11
bzzzzzzzzzzzzzzzzzzzzzzzzzzzzzzzz r
bzzzzzzzzzzzzzzzzzzzzzzzzzzzzzzzz C
bzzzzzzzzzzzzzzzzzzzzzzzzzzzzzzzz Z
b1001000110100000 5
1.
1L
b0001 a
b1001000110100000 H
#330
0)
0+
0D
0*
#335
1)
1+
1D
1*
b10010001101000 ]
b1001000110100000 R
b1001000110100000 A
b1001000110100000 n
1^
1T
1;
1p
b0001 `
b0001 U
b0001 ?
b010 _
1X
19
1m
b00000000000000000000000000000001 v
b011 f
0O
01
#340
0)
0+
0D
0*
#345
1)
1+
1D
1*
b011 _
1S
1:
1o
1e
b00000000000000000000000000000000 v
b100 f
1u
b00101111000010111001111101101000 6
b00101111000010111001111101101000 N
b00101111000010111001111101101000 W
b00101111000010111001111101101000 B
b00101111000010111001111101101000 q
#350
0)
0+
0D
0*
#355
1)
1+
1D
1*
b100 _
0X
09
0m
0S
0:
0o
0e
bzzzzzzzzzzzzzzzzzzzzzzzzzzzzzzzz g
bzzzzzzzzzzzzzzzzzzzzzzzzzzzzzzzz P
bzzzzzzzzzzzzzzzzzzzzzzzzzzzzzzzz 7
b00000000000000000000000000000001 v
b010 f
1O
11
0u
0.
0L
b0000 a
#360
0)
0+
0D
0*
#365
1)
1+
1D
1*
0^
0T
0;
0p
b0000 `
b0000 U
b0000 ?
b010 _
1X
19
1m
b00000000000000000000000000000000 v
b011 f
0O
01
#370
0)
0+
0D
0*
#375
1)
1+
1D
1*
b011 _
1S
1:
1o
1t
1e
b00000000000000000000000000000001 v
b100 f
b00101111000010111001111101101000 r
b00101111000010111001111101101000 C
b00101111000010111001111101101000 Z
#380
0)
0+
0D
0*
#385
1)
1+
1D
1*
b100 _
0X
09
0m
0t
0S
0:
0o
0e
b00101111000010111001111101101000 g
b00101111000010111001111101101000 P
b00101111000010111001111101101000 7
b00000000000000000000000000000000 v
b010 f
1O
11
bzzzzzzzzzzzzzzzzzzzzzzzzzzzzzzzz r
bzzzzzzzzzzzzzzzzzzzzzzzzzzzzzzzz C
bzzzzzzzzzzzzzzzzzzzzzzzzzzzzzzzz Z
b0111100110001100 5
1.
1L
b0001 a
b0111100110001100 H
#390
0)
0+
0D
0*
#395
1)
1+
1D
1*
b01111001100011 ]
b0111100110001100 R
b0111100110001100 A
b0111100110001100 n
1^
1T
1;
1p
b0001 `
b0001 U
b0001 ?
b010 _
1X
19
1m
b00000000000000000000000000000001 v
b011 f
0O
01
#400
0)
0+
0D
0*
#405
1)
1+
1D
1*
b011 _
1S
1:
1o
1e
b00000000000000000000000000000000 v
b100 f
1u
b11010010101100111001110101001101 6
b11010010101100111001110101001101 N
b11010010101100111001110101001101 W
b11010010101100111001110101001101 B
b11010010101100111001110101001101 q
#410
0)
0+
0D
0*
#415
1)
1+
1D
1*
b100 _
0X
09
0m
0S
0:
0o
0e
bzzzzzzzzzzzzzzzzzzzzzzzzzzzzzzzz g
bzzzzzzzzzzzzzzzzzzzzzzzzzzzzzzzz P
bzzzzzzzzzzzzzzzzzzzzzzzzzzzzzzzz 7
b00000000000000000000000000000001 v
b010 f
1O
11
0u
0.
0L
b0000 a
#420
0)
0+
0D
0*
#425
1)
1+
1D
1*
0^
0T
0;
0p
b0000 `
b0000 U
b0000 ?
b010 _
1X
19
1m
b00000000000000000000000000000000 v
b011 f
0O
01
#430
0)
0+
0D
0*
#435
1)
1+
1D
1*
b011 _
1S
1:
1o
1t
1e
b00000000000000000000000000000001 v
b100 f
b11010010101100111001110101001101 r
b11010010101100111001110101001101 C
b11010010101100111001110101001101 Z
#440
0)
0+
0D
0*
#445
1)
1+
1D
1*
b100 _
0X
09
0m
0t
0S
0:
0o
0e
b11010010101100111001110101001101 g
b11010010101100111001110101001101 P
b11010010101100111001110101001101 7
b00000000000000000000000000000000 v
b010 f
1O
11
bzzzzzzzzzzzzzzzzzzzzzzzzzzzzzzzz r
bzzzzzzzzzzzzzzzzzzzzzzzzzzzzzzzz C
bzzzzzzzzzzzzzzzzzzzzzzzzzzzzzzzz Z
b1011111010111000 5
1.
1L
b0001 a
b1011111010111000 H
#450
0)
0+
0D
0*
#455
1)
1+
1D
1*
b10111110101110 ]
b1011111010111000 R
b1011111010111000 A
b1011111010111000 n
1^
1T
1;
1p
b0001 `
b0001 U
b0001 ?
b010 _
1X
19
1m
b00000000000000000000000000000001 v
b011 f
0O
01
#460
0)
0+
0D
0*
#465
1)
1+
1D
1*
b011 _
1S
1:
1o
1e
b00000000000000000000000000000000 v
b100 f
1u
b01100110100111001100011001100110 6
b01100110100111001100011001100110 N
b01100110100111001100011001100110 W
b01100110100111001100011001100110 B
b01100110100111001100011001100110 q
#470
0)
0+
0D
0*
#475
1)
1+
1D
1*
b100 _
0X
09
0m
0S
0:
0o
0e
bzzzzzzzzzzzzzzzzzzzzzzzzzzzzzzzz g
bzzzzzzzzzzzzzzzzzzzzzzzzzzzzzzzz P
bzzzzzzzzzzzzzzzzzzzzzzzzzzzzzzzz 7
b00000000000000000000000000000001 v
b010 f
1O
11
0u
0.
0L
b0000 a
#480
0)
0+
0D
0*
#485
1)
1+
1D
1*
0^
0T
0;
0p
b0000 `
b0000 U
b0000 ?
b010 _
1X
19
1m
b00000000000000000000000000000000 v
b011 f
0O
01
#490
0)
0+
0D
0*
#495
1)
1+
1D
1*
b011 _
1S
1:
1o
1t
1e
b00000000000000000000000000000001 v
b100 f
b01100110100111001100011001100110 r
b01100110100111001100011001100110 C
b01100110100111001100011001100110 Z
#500
0)
0+
0D
0*
#505
1)
1+
1D
1*
b100 _
0X
09
0m
0t
0S
0:
0o
0e
b01100110100111001100011001100110 g
b01100110100111001100011001100110 P
b01100110100111001100011001100110 7
b00000000000000000000000000000000 v
b010 f
1O
11
bzzzzzzzzzzzzzzzzzzzzzzzzzzzzzzzz r
bzzzzzzzzzzzzzzzzzzzzzzzzzzzzzzzz C
bzzzzzzzzzzzzzzzzzzzzzzzzzzzzzzzz Z
b0111111001110100 5
1.
1L
b0001 a
b0111111001110100 H
#510
0)
0+
0D
0*
#515
1)
1+
1D
1*
b01111110011101 ]
b0111111001110100 R
b0111111001110100 A
b0111111001110100 n
1^
1T
1;
1p
b0001 `
b0001 U
b0001 ?
b010 _
1X
19
1m
b00000000000000000000000000000001 v
b011 f
0O
01
#520
0)
0+
0D
0*
#525
1)
1+
1D
1*
b011 _
1S
1:
1o
1e
b00000000000000000000000000000000 v
b100 f
1u
b00111001010010110100011010100000 6
b00111001010010110100011010100000 N
b00111001010010110100011010100000 W
b00111001010010110100011010100000 B
b00111001010010110100011010100000 q
#530
0)
0+
0D
0*
#535
1)
1+
1D
1*
b100 _
0X
09
0m
0S
0:
0o
0e
bzzzzzzzzzzzzzzzzzzzzzzzzzzzzzzzz g
bzzzzzzzzzzzzzzzzzzzzzzzzzzzzzzzz P
bzzzzzzzzzzzzzzzzzzzzzzzzzzzzzzzz 7
b00000000000000000000000000000001 v
b010 f
1O
11
0u
0.
0L
b0000 a
#540
0)
0+
0D
0*
#545
1)
1+
1D
1*
0^
0T
0;
0p
b0000 `
b0000 U
b0000 ?
b010 _
1X
19
1m
b00000000000000000000000000000000 v
b011 f
0O
01
#550
0)
0+
0D
0*
#555
1)
1+
1D
1*
b011 _
1S
1:
1o
1t
1e
b00000000000000000000000000000001 v
b100 f
b00111001010010110100011010100000 r
b00111001010010110100011010100000 C
b00111001010010110100011010100000 Z
#560
0)
0+
0D
0*
#565
1)
1+
1D
1*
b100 _
0X
09
0m
0t
0S
0:
0o
0e
b00111001010010110100011010100000 g
b00111001010010110100011010100000 P
b00111001010010110100011010100000 7
b00000000000000000000000000000000 v
b010 f
1O
11
bzzzzzzzzzzzzzzzzzzzzzzzzzzzzzzzz r
bzzzzzzzzzzzzzzzzzzzzzzzzzzzzzzzz C
bzzzzzzzzzzzzzzzzzzzzzzzzzzzzzzzz Z
b0011110100101000 5
1.
1L
b0001 a
b0011110100101000 H
#570
0)
0+
0D
0*
#575
1)
1+
1D
1*
b00111101001010 ]
b0011110100101000 R
b0011110100101000 A
b0011110100101000 n
1^
1T
1;
1p
b0001 `
b0001 U
b0001 ?
b010 _
1X
19
1m
b00000000000000000000000000000001 v
b011 f
0O
01
#580
0)
0+
0D
0*
#585
1)
1+
1D
1*
b011 _
1S
1:
1o
1e
b00000000000000000000000000000000 v
b100 f
1u
b10110001001101100011011111101001 6
b10110001001101100011011111101001 N
b10110001001101100011011111101001 W
b10110001001101100011011111101001 B
b10110001001101100011011111101001 q
#590
0)
0+
0D
0*
#595
1)
1+
1D
1*
b100 _
0X
09
0m
0S
0:
0o
0e
bzzzzzzzzzzzzzzzzzzzzzzzzzzzzzzzz g
bzzzzzzzzzzzzzzzzzzzzzzzzzzzzzzzz P
bzzzzzzzzzzzzzzzzzzzzzzzzzzzzzzzz 7
b00000000000000000000000000000001 v
b010 f
1O
11
0u
0.
0L
b0000 a
#600
0)
0+
0D
0*
#605
1)
1+
1D
1*
0^
0T
0;
0p
b0000 `
b0000 U
b0000 ?
b010 _
1X
19
1m
b00000000000000000000000000000000 v
b011 f
0O
01
#610
0)
0+
0D
0*
#615
1)
1+
1D
1*
b011 _
1S
1:
1o
1t
1e
b00000000000000000000000000000001 v
b100 f
b10110001001101100011011111101001 r
b10110001001101100011011111101001 C
b10110001001101100011011111101001 Z
